%YAML 1.1
%TAG !u! tag:unity3d.com,2011:
--- !u!1001 &2733834440789983544
PrefabInstance:
  m_ObjectHideFlags: 0
  serializedVersion: 2
  m_Modification:
    m_TransformParent: {fileID: 0}
    m_Modifications:
    - target: {fileID: 4926590347846174690, guid: 522b89d0f09cc834db5f015f40e578f3, type: 3}
      propertyPath: m_RootOrder
      value: 0
      objectReference: {fileID: 0}
    - target: {fileID: 4926590347846174690, guid: 522b89d0f09cc834db5f015f40e578f3, type: 3}
      propertyPath: m_LocalPosition.x
      value: -12.43
      objectReference: {fileID: 0}
    - target: {fileID: 4926590347846174690, guid: 522b89d0f09cc834db5f015f40e578f3, type: 3}
      propertyPath: m_LocalPosition.y
      value: 1
      objectReference: {fileID: 0}
    - target: {fileID: 4926590347846174690, guid: 522b89d0f09cc834db5f015f40e578f3, type: 3}
      propertyPath: m_LocalPosition.z
      value: 5.86
      objectReference: {fileID: 0}
    - target: {fileID: 4926590347846174690, guid: 522b89d0f09cc834db5f015f40e578f3, type: 3}
      propertyPath: m_LocalRotation.w
      value: 1
      objectReference: {fileID: 0}
    - target: {fileID: 4926590347846174690, guid: 522b89d0f09cc834db5f015f40e578f3, type: 3}
      propertyPath: m_LocalRotation.x
      value: 0
      objectReference: {fileID: 0}
    - target: {fileID: 4926590347846174690, guid: 522b89d0f09cc834db5f015f40e578f3, type: 3}
      propertyPath: m_LocalRotation.y
      value: 0
      objectReference: {fileID: 0}
    - target: {fileID: 4926590347846174690, guid: 522b89d0f09cc834db5f015f40e578f3, type: 3}
      propertyPath: m_LocalRotation.z
      value: 0
      objectReference: {fileID: 0}
    - target: {fileID: 4926590347846174690, guid: 522b89d0f09cc834db5f015f40e578f3, type: 3}
      propertyPath: m_LocalEulerAnglesHint.x
      value: 0
      objectReference: {fileID: 0}
    - target: {fileID: 4926590347846174690, guid: 522b89d0f09cc834db5f015f40e578f3, type: 3}
      propertyPath: m_LocalEulerAnglesHint.y
      value: 0
      objectReference: {fileID: 0}
    - target: {fileID: 4926590347846174690, guid: 522b89d0f09cc834db5f015f40e578f3, type: 3}
      propertyPath: m_LocalEulerAnglesHint.z
      value: 0
      objectReference: {fileID: 0}
    - target: {fileID: 4926590347846174712, guid: 522b89d0f09cc834db5f015f40e578f3, type: 3}
      propertyPath: m_Name
      value: PlayerController
      objectReference: {fileID: 0}
    - target: {fileID: 4926590347959035538, guid: 522b89d0f09cc834db5f015f40e578f3, type: 3}
      propertyPath: m_Mesh
      value: 
      objectReference: {fileID: 0}
    m_RemovedComponents: []
  m_SourcePrefab: {fileID: 100100000, guid: 522b89d0f09cc834db5f015f40e578f3, type: 3}
